…
```r
dryad_package_dois('10.5061/dryad.60699')
#> [1] "10.5061/dryad.60699/1" "10.5061/dryad.60699/2" "10.5061/dryad.60699/3"
#> [4] "10.5061/dryad.60699/4" "10.5061/dryad.60699/5" "10.5061/dryad.60699/6"
```

### Get metadata for a DOI

Works for both package DOIs and for DOIs for files within packages


```r
dryad_metadata('10.5061/dryad.9t0n8')
#> $desc
#> # A tibble: 25 x 6
#>    text                    qualifier confidence mdschema element authority
#>    <chr>                   <chr>     <chr>      <chr>    <chr>   <chr>    
#>  1 Lawing, A. Michelle     author    NOVALUE    dc       contri… <NA>     
#>  2 Eronen, Jussi T.        author    NOVALUE    dc       contri… <NA>     
#>  3 Blois, Jessica L.       author    NOVALUE    dc       contri… <NA>     
#>  4 Graham, Catherine H.    author    NOVALUE    dc       contri… <NA>     
#>  5 Polly, P. David         author    NOVALUE    dc       contri… <NA>     
#>  6 2016-05-18T15:17:33Z    accessio… <NA>       dc       date    <NA>     
#>  7 2016-05-18T15:17:33Z    available <NA>       dc       date    <NA>     
#>  8 2016-04-27              issued    <NA>       dc       date    <NA>     
#>  9 doi:10.5061/dryad.9t0n8 <NA>      <NA>       dc       identi… <NA>     
#> 10 Lawing AM, Eronen JT, … citation  <NA>       dc       identi… <NA>     
#> # ... with 15 more rows
…
